%YAML 1.1
%TAG !u! tag:unity3d.com,2011:
--- !u!1 &1050170472116868629
GameObject:
  m_ObjectHideFlags: 0
  m_CorrespondingSourceObject: {fileID: 0}
  m_PrefabInstance: {fileID: 0}
  m_PrefabAsset: {fileID: 0}
  serializedVersion: 6
  m_Component:
  - component: {fileID: 5875246778155819758}
  - component: {fileID: 7103417716462525310}
  m_Layer: 0
  m_Name: Decal Projector
  m_TagString: Untagged
  m_Icon: {fileID: 0}
  m_NavMeshLayer: 0
  m_StaticEditorFlags: 0
  m_IsActive: 1
--- !u!4 &5875246778155819758
Transform:
  m_ObjectHideFlags: 0
  m_CorrespondingSourceObject: {fileID: 0}
  m_PrefabInstance: {fileID: 0}
  m_PrefabAsset: {fileID: 0}
  m_GameObject: {fileID: 1050170472116868629}
  m_LocalRotation: {x: 0.7071068, y: -0, z: -0, w: 0.7071068}
  m_LocalPosition: {x: 29.53227, y: 30.68, z: -24.76}
  m_LocalScale: {x: 1, y: 1, z: 1}
  m_Children: []
  m_Father: {fileID: 0}
  m_RootOrder: 0
  m_LocalEulerAnglesHint: {x: 0, y: 0, z: 0}
--- !u!114 &7103417716462525310
MonoBehaviour:
  m_ObjectHideFlags: 0
  m_CorrespondingSourceObject: {fileID: 0}
  m_PrefabInstance: {fileID: 0}
  m_PrefabAsset: {fileID: 0}
  m_GameObject: {fileID: 1050170472116868629}
  m_Enabled: 1
  m_EditorHideFlags: 0
  m_Script: {fileID: 11500000, guid: f19d9143a39eb3b46bc4563e9889cfbd, type: 3}
  m_Name: 
  m_EditorClassIdentifier: 
  m_Version: 2
  m_Material: {fileID: 2100000, guid: 2a08a7362f8df00469930fa2a45edea5, type: 2}
  m_DrawDistance: 1000
  m_FadeScale: 0.9
  m_UVScale: {x: 1, y: 1}
  m_UVBias: {x: 0, y: 0}
  m_AffectsTransparency: 0
  m_Offset: {x: 0, y: 0, z: 0.5}
  m_Size: {x: 1, y: 1, z: 1}
  m_FadeFactor: 1
